Herramientas de Diseño Estadístico e Interpretación de las Mediciones
…
---
class: center middle inverse

# Análisis de datos NO Normales

---
## Estimar un intervalo de confianza para la media de las siguientes mediciones de As en pozos de agua `datos_no_normales`:

```r
datos.no.normales <- read_excel('datos_curso.xlsx', sheet = 'datos_no_normales')
datos.no.normales
```

```
# A tibble: 268 x 4
   Muestra    As    Cl    Co
     <dbl> <dbl> <dbl> <dbl>
 1       1  2400   6.2  0.42
 2       2     6 116    0.45
 3       3   904  14.8  0.63
 4       4   321  35.9  0.68
 5       5  1280  18.9  0.58
 6       6   151   7.8  0.35
 7       7   141  56.3  0.46
 8       8  1050  16    0.59
 9       9   511  40.4  0.48
10      10   688  29.3  0.87
# ... with 258 more rows
```
…
---
## Importamos los datos desde Excel a R:

```r
library(readxl)
tetra <- read_excel('datos_curso.xlsx', 
                    sheet = 'anova_long')

tetra
```

```
# A tibble: 24 x 2
   Analista  Concentracion
   <chr>             <dbl>
 1 Analista1          96.2
 2 Analista1          92.3
 3 Analista1          97.6
 4 Analista1          96.6
 5 Analista1          88  
 6 Analista1          90.1
 7 Analista2          84.8
 8 Analista2         100  
 9 Analista2          97.9
10 Analista2          96.5
# ... with 14 more rows
```
…
---
## Duplicados de análisis de %Cu en concentrado de Cu:

```r
duplicados <- read_excel('datos_curso.xlsx', sheet = 'duplicados_wide')
duplicados
```

```
# A tibble: 176 x 4
   ID      Analista  dup1  dup2
   <chr>   <chr>    <dbl> <dbl>
 1 QAQC-01 A         30.8  30.5
 2 QAQC-02 A         31.9  32.0
 3 QAQC-03 A         31.3  31.3
 4 QAQC-04 A         31.3  30.9
 5 QAQC-05 A         30.7  30.7
 6 QAQC-06 A         30.9  30.7
 7 QAQC-07 A         31.0  31.2
 8 QAQC-08 A         31.5  31.6
 9 QAQC-09 A         31.1  32.3
10 QAQC-10 A         32.0  31.5
# ... with 166 more rows
```
…
---
## Cálculo de s de repetibilidad usando ANOVA `\(\implies\)` Formato long

```r
duplicados.long <- read_excel('datos_curso.xlsx', sheet = 'duplicados_long')
duplicados.long
```

```
# A tibble: 352 x 4
   ID      Analista Duplicado Concentracion
   <chr>   <chr>        <dbl>         <dbl>
 1 QAQC-01 A                1          30.8
 2 QAQC-02 A                1          31.9
 3 QAQC-03 A                1          31.3
 4 QAQC-04 A                1          31.3
 5 QAQC-05 A                1          30.7
 6 QAQC-06 A                1          30.9
 7 QAQC-07 A                1          31.0
 8 QAQC-08 A                1          31.5
 9 QAQC-09 A                1          31.1
10 QAQC-10 A                1          32.0
# ... with 342 more rows
```
…
